﻿Ref12,Centre,Service,Country
APPLAB1,Aperture Science,Portal Technology,fr
BMELAB1,Black Mesa,Interdimensional Travel,de
BMELAB2,Black Mesa Second Site,Interdimensional Travel,DE
WEYLAB1,Weyland Yutani Research,Xeno-biology,gb
BLULAB3,Blue Sun R&D,Behaviour Modification,cz
TYRLAB2,Tyrell Research,Synthetic Consciousness,GB
usman,khan,123,123
usman,khan,123,123
usman,khan,123,123
usman,khan,123,123
usman,khan,123,123
usman,khan,123,123
usman,khan,123,123
usman,khan,123,123
usman,khan,123,123
usmanaa,khanaa,a,a
usmanaa,khan,123,a
1,1,1,1
